{
    "nombre": "Hugo Sanchez",
    "edad": 43,
    "email": "hugo.sanchez@gmail.com",
    "sexo": "h",
    "telefono": "2781092116",
    "color": "#2d572c",
    "fechaNacimiento": "1976-10-08",
    "trabajo": {
        "puesto": "Desarrollador",
        "email": "hugo.sanchez@consultora.team",
        "telefono":"4455332599"
    }
}